beautifulsoup4==4.6.0
certifi==2017.7.27.1
chardet==3.0.4
cheroot==5.8.3
CherryPy==11.0.0
future==0.16.0
idna==2.6
mysqlclient==1.3.12
portend==2.2
python-crontab==2.2.4
python-dateutil==2.6.1
pytz==2017.2
requests==2.18.4
six==1.10.0
tempora==1.9
ujson==1.35
telebot==0.0.3
setuptools==36.5.0
natsort==5.1.0
